<?xml version="1.0" encoding="UTF-8" standalone="no"?>
<svg width="396.724mm" height="237.067mm"
 viewBox="0.5 0.5 1312 784"
 xmlns="http://www.w3.org/2000/svg" xmlns:xlink="http://www.w3.org/1999/xlink"  version="1.2" baseProfile="tiny">
<title>QM diagram</title>
<desc>QM diagram</desc>
<defs>
</defs>
<g fill="none" stroke="black" stroke-width="1" fill-rule="evenodd" stroke-linecap="square" stroke-linejoin="bevel" >

<g fill="none" stroke="#000000" stroke-opacity="1" stroke-width="1" stroke-linecap="square" stroke-linejoin="bevel" transform="matrix(1,0,0,1,0,0)"
font-family="MS Shell Dlg 2" font-size="9.625" font-weight="400" font-style="normal" 
>
</g>

<g fill="none" stroke="#000000" stroke-opacity="1" stroke-width="1" stroke-linecap="square" stroke-linejoin="bevel" transform="matrix(1,0,0,1,88,424)"
font-family="MS Shell Dlg 2" font-size="9.625" font-weight="400" font-style="normal" 
>
</g>

<g fill="#e0e0ff" fill-opacity="0.501961" stroke="#00008b" stroke-opacity="1" stroke-width="1" stroke-linecap="butt" stroke-linejoin="round" transform="matrix(1,0,0,1,88,424)"
font-family="Arial" font-size="12" font-weight="400" font-style="normal" 
>
<path vector-effect="none" fill-rule="evenodd" d="M0.5,14.5 C0.5,6.76801 6.76801,0.5 14.5,0.5 L242.5,0.5 C250.232,0.5 256.5,6.76801 256.5,14.5 L256.5,234.5 C256.5,242.232 250.232,248.5 242.5,248.5 L14.5,248.5 C6.76801,248.5 0.5,242.232 0.5,234.5 L0.5,14.5"/>
<polyline fill="none" vector-effect="none" points="0.5,16.5 256.5,16.5 " />
<text fill="#00008b" fill-opacity="1" stroke="none" xml:space="preserve" x="118" y="12" font-family="Arial" font-size="12" font-weight="400" font-style="normal" 
 >GUI</text>
</g>

<g fill="none" stroke="#000000" stroke-opacity="1" stroke-width="1" stroke-linecap="square" stroke-linejoin="bevel" transform="matrix(1,0,0,1,88,424)"
font-family="MS Shell Dlg 2" font-size="9.625" font-weight="400" font-style="normal" 
>
</g>

<g fill="none" stroke="#000000" stroke-opacity="1" stroke-width="1" stroke-linecap="square" stroke-linejoin="bevel" transform="matrix(1,0,0,1,112,144)"
font-family="MS Shell Dlg 2" font-size="9.625" font-weight="400" font-style="normal" 
>
</g>

<g fill="#e0e0ff" fill-opacity="0.501961" stroke="#00008b" stroke-opacity="1" stroke-width="1" stroke-linecap="butt" stroke-linejoin="round" transform="matrix(1,0,0,1,112,144)"
font-family="Arial" font-size="12" font-weight="400" font-style="normal" 
>
<path vector-effect="none" fill-rule="evenodd" d="M0.5,14.5 C0.5,6.76801 6.76801,0.5 14.5,0.5 L162.5,0.5 C170.232,0.5 176.5,6.76801 176.5,14.5 L176.5,130.5 C176.5,138.232 170.232,144.5 162.5,144.5 L14.5,144.5 C6.76801,144.5 0.5,138.232 0.5,130.5 L0.5,14.5"/>
<polyline fill="none" vector-effect="none" points="0.5,16.5 176.5,16.5 " />
<text fill="#00008b" fill-opacity="1" stroke="none" xml:space="preserve" x="73.5" y="12" font-family="Arial" font-size="12" font-weight="400" font-style="normal" 
 >ready</text>
<text fill="#00008b" fill-opacity="1" stroke="none" xml:space="preserve" x="9" y="29" font-family="Arial" font-size="12" font-weight="400" font-style="normal" 
 >e / HealthCheck,updateGUI</text>
</g>

<g fill="none" stroke="#000000" stroke-opacity="1" stroke-width="1" stroke-linecap="square" stroke-linejoin="bevel" transform="matrix(1,0,0,1,112,144)"
font-family="MS Shell Dlg 2" font-size="9.625" font-weight="400" font-style="normal" 
>
</g>

<g fill="none" stroke="#000000" stroke-opacity="1" stroke-width="1" stroke-linecap="square" stroke-linejoin="bevel" transform="matrix(1,0,0,1,384,128)"
font-family="MS Shell Dlg 2" font-size="9.625" font-weight="400" font-style="normal" 
>
</g>

<g fill="#e0e0ff" fill-opacity="0.501961" stroke="#00008b" stroke-opacity="1" stroke-width="1" stroke-linecap="butt" stroke-linejoin="round" transform="matrix(1,0,0,1,384,128)"
font-family="Arial" font-size="12" font-weight="400" font-style="normal" 
>
<path vector-effect="none" fill-rule="evenodd" d="M0.5,14.5 C0.5,6.76801 6.76801,0.5 14.5,0.5 L858.5,0.5 C866.232,0.5 872.5,6.76801 872.5,14.5 L872.5,466.5 C872.5,474.232 866.232,480.5 858.5,480.5 L14.5,480.5 C6.76801,480.5 0.5,474.232 0.5,466.5 L0.5,14.5"/>
<polyline fill="none" vector-effect="none" points="0.5,16.5 872.5,16.5 " />
<text fill="#00008b" fill-opacity="1" stroke="none" xml:space="preserve" x="429.5" y="12" font-family="Arial" font-size="12" font-weight="400" font-style="normal" 
 >on</text>
<text fill="#00008b" fill-opacity="1" stroke="none" xml:space="preserve" x="9" y="29" font-family="Arial" font-size="12" font-weight="400" font-style="normal" 
 >e / MotorOn,EnableTimer,GUILiveUpdate</text>
</g>

<g fill="#e0e0ff" fill-opacity="0.501961" stroke="#00008b" stroke-opacity="1" stroke-width="1" stroke-linecap="butt" stroke-linejoin="round" transform="matrix(1,0,0,1,384,128)"
font-family="Arial" font-size="12" font-weight="400" font-style="normal" 
>
<text fill="#00008b" fill-opacity="1" stroke="none" xml:space="preserve" x="9" y="53" font-family="Arial" font-size="12" font-weight="400" font-style="normal" 
 >x / MotorOff,DisableTimer,GUIShowSetting</text>
</g>

<g fill="#e0e0ff" fill-opacity="0.501961" stroke="#00008b" stroke-opacity="1" stroke-width="1" stroke-linecap="butt" stroke-linejoin="round" transform="matrix(1,0,0,1,384,128)"
font-family="Arial" font-size="12" font-weight="400" font-style="normal" 
>
</g>

<g fill="#e0e0ff" fill-opacity="0.501961" stroke="#00008b" stroke-opacity="1" stroke-width="1" stroke-linecap="butt" stroke-linejoin="round" transform="matrix(1,0,0,1,0,0)"
font-family="Arial" font-size="12" font-weight="400" font-style="normal" 
>
</g>

<g fill="#e0e0ff" fill-opacity="0.501961" stroke="#00008b" stroke-opacity="1" stroke-width="1" stroke-linecap="butt" stroke-linejoin="round" transform="matrix(1,0,0,1,384,128)"
font-family="Arial" font-size="12" font-weight="400" font-style="normal" 
>
</g>

<g fill="none" stroke="#000000" stroke-opacity="1" stroke-width="1" stroke-linecap="square" stroke-linejoin="bevel" transform="matrix(1,0,0,1,384,128)"
font-family="MS Shell Dlg 2" font-size="9.625" font-weight="400" font-style="normal" 
>
</g>

<g fill="none" stroke="#000000" stroke-opacity="1" stroke-width="1" stroke-linecap="square" stroke-linejoin="bevel" transform="matrix(1,0,0,1,112,328)"
font-family="MS Shell Dlg 2" font-size="9.625" font-weight="400" font-style="normal" 
>
</g>

<g fill="#e0e0ff" fill-opacity="0.501961" stroke="#00008b" stroke-opacity="1" stroke-width="1" stroke-linecap="butt" stroke-linejoin="round" transform="matrix(1,0,0,1,112,328)"
font-family="Arial" font-size="12" font-weight="400" font-style="normal" 
>
<path vector-effect="none" fill-rule="evenodd" d="M0.5,14.5 C0.5,6.76801 6.76801,0.5 14.5,0.5 L162.5,0.5 C170.232,0.5 176.5,6.76801 176.5,14.5 L176.5,58.5 C176.5,66.232 170.232,72.5 162.5,72.5 L14.5,72.5 C6.76801,72.5 0.5,66.232 0.5,58.5 L0.5,14.5"/>
<polyline fill="none" vector-effect="none" points="0.5,16.5 176.5,16.5 " />
<text fill="#00008b" fill-opacity="1" stroke="none" xml:space="preserve" x="69.5" y="12" font-family="Arial" font-size="12" font-weight="400" font-style="normal" 
 >Failure</text>
</g>

<g fill="#e0e0ff" fill-opacity="0.501961" stroke="#00008b" stroke-opacity="1" stroke-width="1" stroke-linecap="butt" stroke-linejoin="round" transform="matrix(1,0,0,1,112,328)"
font-family="Arial" font-size="12" font-weight="400" font-style="normal" 
>
<text fill="#00008b" fill-opacity="1" stroke="none" xml:space="preserve" x="9" y="29" font-family="Arial" font-size="12" font-weight="400" font-style="normal" 
 >e / notifyGUI</text>
</g>

<g fill="#e0e0ff" fill-opacity="0.501961" stroke="#00008b" stroke-opacity="1" stroke-width="1" stroke-linecap="butt" stroke-linejoin="round" transform="matrix(1,0,0,1,112,328)"
font-family="Arial" font-size="12" font-weight="400" font-style="normal" 
>
</g>

<g fill="#e0e0ff" fill-opacity="0.501961" stroke="#00008b" stroke-opacity="1" stroke-width="1" stroke-linecap="butt" stroke-linejoin="round" transform="matrix(1,0,0,1,0,0)"
font-family="Arial" font-size="12" font-weight="400" font-style="normal" 
>
</g>

<g fill="#e0e0ff" fill-opacity="0.501961" stroke="#00008b" stroke-opacity="1" stroke-width="1" stroke-linecap="butt" stroke-linejoin="round" transform="matrix(1,0,0,1,112,328)"
font-family="Arial" font-size="12" font-weight="400" font-style="normal" 
>
</g>

<g fill="none" stroke="#000000" stroke-opacity="1" stroke-width="1" stroke-linecap="square" stroke-linejoin="bevel" transform="matrix(1,0,0,1,112,328)"
font-family="MS Shell Dlg 2" font-size="9.625" font-weight="400" font-style="normal" 
>
</g>

<g fill="none" stroke="#000000" stroke-opacity="1" stroke-width="1" stroke-linecap="square" stroke-linejoin="bevel" transform="matrix(1,0,0,1,672,368)"
font-family="MS Shell Dlg 2" font-size="9.625" font-weight="400" font-style="normal" 
>
</g>

<g fill="#e0e0ff" fill-opacity="0.501961" stroke="#00008b" stroke-opacity="1" stroke-width="1" stroke-linecap="butt" stroke-linejoin="round" transform="matrix(1,0,0,1,672,368)"
font-family="Arial" font-size="12" font-weight="400" font-style="normal" 
>
<path vector-effect="none" fill-rule="evenodd" d="M0.5,14.5 C0.5,6.76801 6.76801,0.5 14.5,0.5 L210.5,0.5 C218.232,0.5 224.5,6.76801 224.5,14.5 L224.5,154.5 C224.5,162.232 218.232,168.5 210.5,168.5 L14.5,168.5 C6.76801,168.5 0.5,162.232 0.5,154.5 L0.5,14.5"/>
<polyline fill="none" vector-effect="none" points="0.5,16.5 224.5,16.5 " />
<text fill="#00008b" fill-opacity="1" stroke="none" xml:space="preserve" x="104.5" y="12" font-family="Arial" font-size="12" font-weight="400" font-style="normal" 
 >VC</text>
</g>

<g fill="none" stroke="#000000" stroke-opacity="1" stroke-width="1" stroke-linecap="square" stroke-linejoin="bevel" transform="matrix(1,0,0,1,672,368)"
font-family="MS Shell Dlg 2" font-size="9.625" font-weight="400" font-style="normal" 
>
</g>

<g fill="none" stroke="#000000" stroke-opacity="1" stroke-width="1" stroke-linecap="square" stroke-linejoin="bevel" transform="matrix(1,0,0,1,960,368)"
font-family="MS Shell Dlg 2" font-size="9.625" font-weight="400" font-style="normal" 
>
</g>

<g fill="#e0e0ff" fill-opacity="0.501961" stroke="#00008b" stroke-opacity="1" stroke-width="1" stroke-linecap="butt" stroke-linejoin="round" transform="matrix(1,0,0,1,960,368)"
font-family="Arial" font-size="12" font-weight="400" font-style="normal" 
>
<path vector-effect="none" fill-rule="evenodd" d="M0.5,14.5 C0.5,6.76801 6.76801,0.5 14.5,0.5 L186.5,0.5 C194.232,0.5 200.5,6.76801 200.5,14.5 L200.5,154.5 C200.5,162.232 194.232,168.5 186.5,168.5 L14.5,168.5 C6.76801,168.5 0.5,162.232 0.5,154.5 L0.5,14.5"/>
<polyline fill="none" vector-effect="none" points="0.5,16.5 200.5,16.5 " />
<text fill="#00008b" fill-opacity="1" stroke="none" xml:space="preserve" x="84.5" y="12" font-family="Arial" font-size="12" font-weight="400" font-style="normal" 
 >alarm</text>
</g>

<g fill="#e0e0ff" fill-opacity="0.501961" stroke="#00008b" stroke-opacity="1" stroke-width="1" stroke-linecap="butt" stroke-linejoin="round" transform="matrix(1,0,0,1,960,368)"
font-family="Arial" font-size="12" font-weight="400" font-style="normal" 
>
<text fill="#00008b" fill-opacity="1" stroke="none" xml:space="preserve" x="9" y="29" font-family="Arial" font-size="12" font-weight="400" font-style="normal" 
 >e / AlarmOn</text>
</g>

<g fill="#e0e0ff" fill-opacity="0.501961" stroke="#00008b" stroke-opacity="1" stroke-width="1" stroke-linecap="butt" stroke-linejoin="round" transform="matrix(1,0,0,1,960,368)"
font-family="Arial" font-size="12" font-weight="400" font-style="normal" 
>
</g>

<g fill="#e0e0ff" fill-opacity="0.501961" stroke="#00008b" stroke-opacity="1" stroke-width="1" stroke-linecap="butt" stroke-linejoin="round" transform="matrix(1,0,0,1,0,0)"
font-family="Arial" font-size="12" font-weight="400" font-style="normal" 
>
</g>

<g fill="#e0e0ff" fill-opacity="0.501961" stroke="#00008b" stroke-opacity="1" stroke-width="1" stroke-linecap="butt" stroke-linejoin="round" transform="matrix(1,0,0,1,960,368)"
font-family="Arial" font-size="12" font-weight="400" font-style="normal" 
>
</g>

<g fill="#e0e0ff" fill-opacity="0.501961" stroke="#00008b" stroke-opacity="1" stroke-width="1" stroke-linecap="butt" stroke-linejoin="round" transform="matrix(1,0,0,1,960,368)"
font-family="Arial" font-size="12" font-weight="400" font-style="normal" 
>
<text fill="#00008b" fill-opacity="1" stroke="none" xml:space="preserve" x="9" y="45" font-family="Arial" font-size="12" font-weight="400" font-style="normal" 
 >x / AlarmOff</text>
</g>

<g fill="#e0e0ff" fill-opacity="0.501961" stroke="#00008b" stroke-opacity="1" stroke-width="1" stroke-linecap="butt" stroke-linejoin="round" transform="matrix(1,0,0,1,960,368)"
font-family="Arial" font-size="12" font-weight="400" font-style="normal" 
>
</g>

<g fill="#e0e0ff" fill-opacity="0.501961" stroke="#00008b" stroke-opacity="1" stroke-width="1" stroke-linecap="butt" stroke-linejoin="round" transform="matrix(1,0,0,1,0,0)"
font-family="Arial" font-size="12" font-weight="400" font-style="normal" 
>
</g>

<g fill="#e0e0ff" fill-opacity="0.501961" stroke="#00008b" stroke-opacity="1" stroke-width="1" stroke-linecap="butt" stroke-linejoin="round" transform="matrix(1,0,0,1,960,368)"
font-family="Arial" font-size="12" font-weight="400" font-style="normal" 
>
</g>

<g fill="none" stroke="#000000" stroke-opacity="1" stroke-width="1" stroke-linecap="square" stroke-linejoin="bevel" transform="matrix(1,0,0,1,960,368)"
font-family="MS Shell Dlg 2" font-size="9.625" font-weight="400" font-style="normal" 
>
</g>

<g fill="none" stroke="#000000" stroke-opacity="1" stroke-width="1" stroke-linecap="square" stroke-linejoin="bevel" transform="matrix(1,0,0,1,400,368)"
font-family="MS Shell Dlg 2" font-size="9.625" font-weight="400" font-style="normal" 
>
</g>

<g fill="#e0e0ff" fill-opacity="0.501961" stroke="#00008b" stroke-opacity="1" stroke-width="1" stroke-linecap="butt" stroke-linejoin="round" transform="matrix(1,0,0,1,400,368)"
font-family="Arial" font-size="12" font-weight="400" font-style="normal" 
>
<path vector-effect="none" fill-rule="evenodd" d="M0.5,14.5 C0.5,6.76801 6.76801,0.5 14.5,0.5 L202.5,0.5 C210.232,0.5 216.5,6.76801 216.5,14.5 L216.5,154.5 C216.5,162.232 210.232,168.5 202.5,168.5 L14.5,168.5 C6.76801,168.5 0.5,162.232 0.5,154.5 L0.5,14.5"/>
<polyline fill="none" vector-effect="none" points="0.5,16.5 216.5,16.5 " />
<text fill="#00008b" fill-opacity="1" stroke="none" xml:space="preserve" x="100" y="12" font-family="Arial" font-size="12" font-weight="400" font-style="normal" 
 >PC</text>
</g>

<g fill="none" stroke="#000000" stroke-opacity="1" stroke-width="1" stroke-linecap="square" stroke-linejoin="bevel" transform="matrix(1,0,0,1,400,368)"
font-family="MS Shell Dlg 2" font-size="9.625" font-weight="400" font-style="normal" 
>
</g>

<g fill="none" stroke="#000000" stroke-opacity="1" stroke-width="1" stroke-linecap="square" stroke-linejoin="bevel" transform="matrix(1,0,0,1,160,88)"
font-family="MS Shell Dlg 2" font-size="9.625" font-weight="400" font-style="normal" 
>
</g>

<g fill="none" stroke="#8b0000" stroke-opacity="1" stroke-width="1" stroke-linecap="square" stroke-linejoin="round" transform="matrix(1,0,0,1,160,88)"
font-family="MS Shell Dlg 2" font-size="9.625" font-weight="400" font-style="normal" 
>
<polyline fill="none" vector-effect="none" points="0.5,0.5 152.5,0.5 " />
<polyline fill="none" vector-effect="none" points="152.5,0.5 152.5,72.5 " />
<polyline fill="none" vector-effect="none" points="152.5,72.5 128.5,72.5 " />
</g>

<g fill="#8b0000" fill-opacity="1" stroke="#8b0000" stroke-opacity="1" stroke-width="1" stroke-linecap="square" stroke-linejoin="round" transform="matrix(1,0,0,1,160,88)"
font-family="Arial" font-size="12" font-weight="400" font-style="normal" 
>
<circle cx="0.5" cy="0.5" r="4"/>
</g>

<g fill="none" stroke="#8b0000" stroke-opacity="1" stroke-width="1" stroke-linecap="square" stroke-linejoin="round" transform="matrix(1,0,0,1,160,88)"
font-family="Arial" font-size="12" font-weight="400" font-style="normal" 
>
<polyline fill="none" vector-effect="none" points="136.5,68.5 128.5,72.5 136.5,76.5 " />
</g>

<g fill="none" stroke="#8b0000" stroke-opacity="1" stroke-width="1" stroke-linecap="square" stroke-linejoin="round" transform="matrix(1,0,0,1,160,88)"
font-family="Arial" font-size="12" font-weight="400" font-style="normal" 
>
<text fill="#8b0000" fill-opacity="1" stroke="none" xml:space="preserve" x="9" y="-3" font-family="Arial" font-size="12" font-weight="400" font-style="normal" 
 > / Initialization</text>
</g>

<g fill="none" stroke="#8b0000" stroke-opacity="1" stroke-width="1" stroke-linecap="square" stroke-linejoin="round" transform="matrix(1,0,0,1,160,88)"
font-family="Arial" font-size="12" font-weight="400" font-style="normal" 
>
</g>

<g fill="none" stroke="#8b0000" stroke-opacity="1" stroke-width="1" stroke-linecap="square" stroke-linejoin="round" transform="matrix(1,0,0,1,0,0)"
font-family="Arial" font-size="12" font-weight="400" font-style="normal" 
>
</g>

<g fill="none" stroke="#8b0000" stroke-opacity="1" stroke-width="1" stroke-linecap="square" stroke-linejoin="round" transform="matrix(1,0,0,1,160,88)"
font-family="Arial" font-size="12" font-weight="400" font-style="normal" 
>
</g>

<g fill="none" stroke="#000000" stroke-opacity="1" stroke-width="1" stroke-linecap="square" stroke-linejoin="bevel" transform="matrix(1,0,0,1,160,88)"
font-family="MS Shell Dlg 2" font-size="9.625" font-weight="400" font-style="normal" 
>
</g>

<g fill="none" stroke="#000000" stroke-opacity="1" stroke-width="1" stroke-linecap="square" stroke-linejoin="bevel" transform="matrix(1,0,0,1,112,240)"
font-family="MS Shell Dlg 2" font-size="9.625" font-weight="400" font-style="normal" 
>
</g>

<g fill="none" stroke="#8b0000" stroke-opacity="1" stroke-width="1" stroke-linecap="square" stroke-linejoin="round" transform="matrix(1,0,0,1,112,240)"
font-family="MS Shell Dlg 2" font-size="9.625" font-weight="400" font-style="normal" 
>
<polyline fill="none" vector-effect="none" points="0.5,0.5 272.5,0.5 " />
</g>

<g fill="none" stroke="#8b0000" stroke-opacity="1" stroke-width="1" stroke-linecap="square" stroke-linejoin="round" transform="matrix(1,0,0,1,112,240)"
font-family="Arial" font-size="12" font-weight="400" font-style="normal" 
>
<polyline fill="none" vector-effect="none" points="264.5,-3.5 272.5,0.5 264.5,4.5 " />
</g>

<g fill="none" stroke="#8b0000" stroke-opacity="1" stroke-width="1" stroke-linecap="square" stroke-linejoin="round" transform="matrix(1,0,0,1,112,240)"
font-family="Arial" font-size="12" font-weight="400" font-style="normal" 
>
<text fill="#8b0000" fill-opacity="1" stroke="none" xml:space="preserve" x="1" y="-3" font-family="Arial" font-size="12" font-weight="400" font-style="normal" 
 >START</text>
</g>

<g fill="none" stroke="#8b0000" stroke-opacity="1" stroke-width="1" stroke-linecap="square" stroke-linejoin="round" transform="matrix(1,0,0,1,112,240)"
font-family="Arial" font-size="12" font-weight="400" font-style="normal" 
>
</g>

<g fill="none" stroke="#8b0000" stroke-opacity="1" stroke-width="1" stroke-linecap="square" stroke-linejoin="round" transform="matrix(1,0,0,1,0,0)"
font-family="Arial" font-size="12" font-weight="400" font-style="normal" 
>
</g>

<g fill="none" stroke="#8b0000" stroke-opacity="1" stroke-width="1" stroke-linecap="square" stroke-linejoin="round" transform="matrix(1,0,0,1,112,240)"
font-family="Arial" font-size="12" font-weight="400" font-style="normal" 
>
</g>

<g fill="none" stroke="#000000" stroke-opacity="1" stroke-width="1" stroke-linecap="square" stroke-linejoin="bevel" transform="matrix(1,0,0,1,112,240)"
font-family="MS Shell Dlg 2" font-size="9.625" font-weight="400" font-style="normal" 
>
</g>

<g fill="none" stroke="#000000" stroke-opacity="1" stroke-width="1" stroke-linecap="square" stroke-linejoin="bevel" transform="matrix(1,0,0,1,112,264)"
font-family="MS Shell Dlg 2" font-size="9.625" font-weight="400" font-style="normal" 
>
</g>

<g fill="none" stroke="#8b0000" stroke-opacity="1" stroke-width="1" stroke-linecap="square" stroke-linejoin="round" transform="matrix(1,0,0,1,112,264)"
font-family="MS Shell Dlg 2" font-size="9.625" font-weight="400" font-style="normal" 
>
<polyline fill="none" vector-effect="none" points="0.5,0.5 200.5,0.5 " />
<polyline fill="none" vector-effect="none" points="200.5,0.5 200.5,80.5 " />
<polyline fill="none" vector-effect="none" points="200.5,80.5 176.5,80.5 " />
</g>

<g fill="none" stroke="#8b0000" stroke-opacity="1" stroke-width="1" stroke-linecap="square" stroke-linejoin="round" transform="matrix(1,0,0,1,112,264)"
font-family="Arial" font-size="12" font-weight="400" font-style="normal" 
>
<polyline fill="none" vector-effect="none" points="184.5,76.5 176.5,80.5 184.5,84.5 " />
</g>

<g fill="none" stroke="#8b0000" stroke-opacity="1" stroke-width="1" stroke-linecap="square" stroke-linejoin="round" transform="matrix(1,0,0,1,112,264)"
font-family="Arial" font-size="12" font-weight="400" font-style="normal" 
>
<text fill="#8b0000" fill-opacity="1" stroke="none" xml:space="preserve" x="1" y="-3" font-family="Arial" font-size="12" font-weight="400" font-style="normal" 
 >DEFECT</text>
</g>

<g fill="none" stroke="#8b0000" stroke-opacity="1" stroke-width="1" stroke-linecap="square" stroke-linejoin="round" transform="matrix(1,0,0,1,112,264)"
font-family="Arial" font-size="12" font-weight="400" font-style="normal" 
>
</g>

<g fill="none" stroke="#8b0000" stroke-opacity="1" stroke-width="1" stroke-linecap="square" stroke-linejoin="round" transform="matrix(1,0,0,1,0,0)"
font-family="Arial" font-size="12" font-weight="400" font-style="normal" 
>
</g>

<g fill="none" stroke="#8b0000" stroke-opacity="1" stroke-width="1" stroke-linecap="square" stroke-linejoin="round" transform="matrix(1,0,0,1,112,264)"
font-family="Arial" font-size="12" font-weight="400" font-style="normal" 
>
</g>

<g fill="none" stroke="#000000" stroke-opacity="1" stroke-width="1" stroke-linecap="square" stroke-linejoin="bevel" transform="matrix(1,0,0,1,112,264)"
font-family="MS Shell Dlg 2" font-size="9.625" font-weight="400" font-style="normal" 
>
</g>

<g fill="none" stroke="#000000" stroke-opacity="1" stroke-width="1" stroke-linecap="square" stroke-linejoin="bevel" transform="matrix(1,0,0,1,776,608)"
font-family="MS Shell Dlg 2" font-size="9.625" font-weight="400" font-style="normal" 
>
</g>

<g fill="none" stroke="#8b0000" stroke-opacity="1" stroke-width="1" stroke-linecap="square" stroke-linejoin="round" transform="matrix(1,0,0,1,776,608)"
font-family="MS Shell Dlg 2" font-size="9.625" font-weight="400" font-style="normal" 
>
<polyline fill="none" vector-effect="none" points="0.5,0.5 0.5,-71.5 " />
</g>

<g fill="none" stroke="#8b0000" stroke-opacity="1" stroke-width="1" stroke-linecap="square" stroke-linejoin="round" transform="matrix(1,0,0,1,776,608)"
font-family="Arial" font-size="12" font-weight="400" font-style="normal" 
>
<polyline fill="none" vector-effect="none" points="-3.5,-63.5 0.5,-71.5 4.5,-63.5 " />
<text fill="#8b0000" fill-opacity="1" stroke="none" xml:space="preserve" x="1" y="-35" font-family="Arial" font-size="12" font-weight="400" font-style="normal" 
 >VC /</text>
<text fill="#8b0000" fill-opacity="1" stroke="none" xml:space="preserve" x="1" y="-20" font-family="Arial" font-size="12" font-weight="400" font-style="normal" 
 >VOLUME_CONTROL</text>
</g>

<g fill="none" stroke="#000000" stroke-opacity="1" stroke-width="1" stroke-linecap="square" stroke-linejoin="bevel" transform="matrix(1,0,0,1,776,608)"
font-family="MS Shell Dlg 2" font-size="9.625" font-weight="400" font-style="normal" 
>
</g>

<g fill="none" stroke="#000000" stroke-opacity="1" stroke-width="1" stroke-linecap="square" stroke-linejoin="bevel" transform="matrix(1,0,0,1,504,608)"
font-family="MS Shell Dlg 2" font-size="9.625" font-weight="400" font-style="normal" 
>
</g>

<g fill="none" stroke="#8b0000" stroke-opacity="1" stroke-width="1" stroke-linecap="square" stroke-linejoin="round" transform="matrix(1,0,0,1,504,608)"
font-family="MS Shell Dlg 2" font-size="9.625" font-weight="400" font-style="normal" 
>
<polyline fill="none" vector-effect="none" points="0.5,0.5 0.5,-71.5 " />
</g>

<g fill="none" stroke="#8b0000" stroke-opacity="1" stroke-width="1" stroke-linecap="square" stroke-linejoin="round" transform="matrix(1,0,0,1,504,608)"
font-family="Arial" font-size="12" font-weight="400" font-style="normal" 
>
<polyline fill="none" vector-effect="none" points="-3.5,-63.5 0.5,-71.5 4.5,-63.5 " />
<text fill="#8b0000" fill-opacity="1" stroke="none" xml:space="preserve" x="1" y="-35" font-family="Arial" font-size="12" font-weight="400" font-style="normal" 
 >PC /</text>
<text fill="#8b0000" fill-opacity="1" stroke="none" xml:space="preserve" x="1" y="-20" font-family="Arial" font-size="12" font-weight="400" font-style="normal" 
 >PRESSURE_CONTROL</text>
</g>

<g fill="none" stroke="#000000" stroke-opacity="1" stroke-width="1" stroke-linecap="square" stroke-linejoin="bevel" transform="matrix(1,0,0,1,504,608)"
font-family="MS Shell Dlg 2" font-size="9.625" font-weight="400" font-style="normal" 
>
</g>

<g fill="none" stroke="#000000" stroke-opacity="1" stroke-width="1" stroke-linecap="square" stroke-linejoin="bevel" transform="matrix(1,0,0,1,384,208)"
font-family="MS Shell Dlg 2" font-size="9.625" font-weight="400" font-style="normal" 
>
</g>

<g fill="none" stroke="#8b0000" stroke-opacity="1" stroke-width="1" stroke-linecap="square" stroke-linejoin="round" transform="matrix(1,0,0,1,384,208)"
font-family="MS Shell Dlg 2" font-size="9.625" font-weight="400" font-style="normal" 
>
<polyline fill="none" vector-effect="none" points="0.5,0.5 560.5,0.5 " />
<polyline fill="none" vector-effect="none" points="560.5,0.5 560.5,176.5 " />
<polyline fill="none" vector-effect="none" points="560.5,176.5 576.5,176.5 " />
</g>

<g fill="none" stroke="#8b0000" stroke-opacity="1" stroke-width="1" stroke-linecap="square" stroke-linejoin="round" transform="matrix(1,0,0,1,384,208)"
font-family="Arial" font-size="12" font-weight="400" font-style="normal" 
>
<polyline fill="none" vector-effect="none" points="568.5,172.5 576.5,176.5 568.5,180.5 " />
</g>

<g fill="none" stroke="#8b0000" stroke-opacity="1" stroke-width="1" stroke-linecap="square" stroke-linejoin="round" transform="matrix(1,0,0,1,384,208)"
font-family="Arial" font-size="12" font-weight="400" font-style="normal" 
>
<text fill="#8b0000" fill-opacity="1" stroke="none" xml:space="preserve" x="1" y="-3" font-family="Arial" font-size="12" font-weight="400" font-style="normal" 
 >POWERCUTOFF</text>
</g>

<g fill="none" stroke="#8b0000" stroke-opacity="1" stroke-width="1" stroke-linecap="square" stroke-linejoin="round" transform="matrix(1,0,0,1,384,208)"
font-family="Arial" font-size="12" font-weight="400" font-style="normal" 
>
</g>

<g fill="none" stroke="#8b0000" stroke-opacity="1" stroke-width="1" stroke-linecap="square" stroke-linejoin="round" transform="matrix(1,0,0,1,0,0)"
font-family="Arial" font-size="12" font-weight="400" font-style="normal" 
>
</g>

<g fill="none" stroke="#8b0000" stroke-opacity="1" stroke-width="1" stroke-linecap="square" stroke-linejoin="round" transform="matrix(1,0,0,1,384,208)"
font-family="Arial" font-size="12" font-weight="400" font-style="normal" 
>
</g>

<g fill="none" stroke="#000000" stroke-opacity="1" stroke-width="1" stroke-linecap="square" stroke-linejoin="bevel" transform="matrix(1,0,0,1,384,208)"
font-family="MS Shell Dlg 2" font-size="9.625" font-weight="400" font-style="normal" 
>
</g>

<g fill="none" stroke="#000000" stroke-opacity="1" stroke-width="1" stroke-linecap="square" stroke-linejoin="bevel" transform="matrix(1,0,0,1,672,456)"
font-family="MS Shell Dlg 2" font-size="9.625" font-weight="400" font-style="normal" 
>
</g>

<g fill="none" stroke="#8b0000" stroke-opacity="1" stroke-width="1" stroke-linecap="square" stroke-linejoin="round" transform="matrix(1,0,0,1,672,456)"
font-family="MS Shell Dlg 2" font-size="9.625" font-weight="400" font-style="normal" 
>
<polyline fill="none" vector-effect="none" points="0.5,0.5 288.5,0.5 " />
</g>

<g fill="none" stroke="#8b0000" stroke-opacity="1" stroke-width="1" stroke-linecap="square" stroke-linejoin="round" transform="matrix(1,0,0,1,672,456)"
font-family="Arial" font-size="12" font-weight="400" font-style="normal" 
>
<polyline fill="none" vector-effect="none" points="280.5,-3.5 288.5,0.5 280.5,4.5 " />
</g>

<g fill="none" stroke="#8b0000" stroke-opacity="1" stroke-width="1" stroke-linecap="square" stroke-linejoin="round" transform="matrix(1,0,0,1,672,456)"
font-family="Arial" font-size="12" font-weight="400" font-style="normal" 
>
<text fill="#8b0000" fill-opacity="1" stroke="none" xml:space="preserve" x="1" y="-3" font-family="Arial" font-size="12" font-weight="400" font-style="normal" 
 >PROBLEM2</text>
</g>

<g fill="none" stroke="#8b0000" stroke-opacity="1" stroke-width="1" stroke-linecap="square" stroke-linejoin="round" transform="matrix(1,0,0,1,672,456)"
font-family="Arial" font-size="12" font-weight="400" font-style="normal" 
>
</g>

<g fill="none" stroke="#8b0000" stroke-opacity="1" stroke-width="1" stroke-linecap="square" stroke-linejoin="round" transform="matrix(1,0,0,1,0,0)"
font-family="Arial" font-size="12" font-weight="400" font-style="normal" 
>
</g>

<g fill="none" stroke="#8b0000" stroke-opacity="1" stroke-width="1" stroke-linecap="square" stroke-linejoin="round" transform="matrix(1,0,0,1,672,456)"
font-family="Arial" font-size="12" font-weight="400" font-style="normal" 
>
</g>

<g fill="none" stroke="#000000" stroke-opacity="1" stroke-width="1" stroke-linecap="square" stroke-linejoin="bevel" transform="matrix(1,0,0,1,672,456)"
font-family="MS Shell Dlg 2" font-size="9.625" font-weight="400" font-style="normal" 
>
</g>

<g fill="none" stroke="#000000" stroke-opacity="1" stroke-width="1" stroke-linecap="square" stroke-linejoin="bevel" transform="matrix(1,0,0,1,400,408)"
font-family="MS Shell Dlg 2" font-size="9.625" font-weight="400" font-style="normal" 
>
</g>

<g fill="none" stroke="#8b0000" stroke-opacity="1" stroke-width="1" stroke-linecap="square" stroke-linejoin="round" transform="matrix(1,0,0,1,400,408)"
font-family="MS Shell Dlg 2" font-size="9.625" font-weight="400" font-style="normal" 
>
<polyline fill="none" vector-effect="none" points="0.5,0.5 240.5,0.5 " />
<polyline fill="none" vector-effect="none" points="240.5,0.5 240.5,-55.5 " />
<polyline fill="none" vector-effect="none" points="240.5,-55.5 520.5,-55.5 " />
<polyline fill="none" vector-effect="none" points="520.5,-55.5 520.5,0.5 " />
<polyline fill="none" vector-effect="none" points="520.5,0.5 560.5,0.5 " />
</g>

<g fill="none" stroke="#8b0000" stroke-opacity="1" stroke-width="1" stroke-linecap="square" stroke-linejoin="round" transform="matrix(1,0,0,1,400,408)"
font-family="Arial" font-size="12" font-weight="400" font-style="normal" 
>
<polyline fill="none" vector-effect="none" points="552.5,-3.5 560.5,0.5 552.5,4.5 " />
</g>

<g fill="none" stroke="#8b0000" stroke-opacity="1" stroke-width="1" stroke-linecap="square" stroke-linejoin="round" transform="matrix(1,0,0,1,400,408)"
font-family="Arial" font-size="12" font-weight="400" font-style="normal" 
>
<text fill="#8b0000" fill-opacity="1" stroke="none" xml:space="preserve" x="1" y="-3" font-family="Arial" font-size="12" font-weight="400" font-style="normal" 
 >PROBLEM1</text>
</g>

<g fill="none" stroke="#8b0000" stroke-opacity="1" stroke-width="1" stroke-linecap="square" stroke-linejoin="round" transform="matrix(1,0,0,1,400,408)"
font-family="Arial" font-size="12" font-weight="400" font-style="normal" 
>
</g>

<g fill="none" stroke="#8b0000" stroke-opacity="1" stroke-width="1" stroke-linecap="square" stroke-linejoin="round" transform="matrix(1,0,0,1,0,0)"
font-family="Arial" font-size="12" font-weight="400" font-style="normal" 
>
</g>

<g fill="none" stroke="#8b0000" stroke-opacity="1" stroke-width="1" stroke-linecap="square" stroke-linejoin="round" transform="matrix(1,0,0,1,400,408)"
font-family="Arial" font-size="12" font-weight="400" font-style="normal" 
>
</g>

<g fill="none" stroke="#000000" stroke-opacity="1" stroke-width="1" stroke-linecap="square" stroke-linejoin="bevel" transform="matrix(1,0,0,1,400,408)"
font-family="MS Shell Dlg 2" font-size="9.625" font-weight="400" font-style="normal" 
>
</g>

<g fill="none" stroke="#000000" stroke-opacity="1" stroke-width="1" stroke-linecap="square" stroke-linejoin="bevel" transform="matrix(1,0,0,1,0,0)"
font-family="MS Shell Dlg 2" font-size="9.625" font-weight="400" font-style="normal" 
>
</g>
</g>
</svg>
